{
  "prepare_queue": {
    "installed": [],
    "uninstalled": []
  },
  "config_munge": {
    "files": {}
  },
  "installed_plugins": {
    "cordova-plugin-whitelist": {
      "PACKAGE_NAME": "io.cordova.hellocordova"
    },
    "cordova-sqlite-storage": {
      "PACKAGE_NAME": "io.cordova.hellocordova"
    },
    "cordova-plugin-googlemaps": {
      "API_KEY_FOR_ANDROID": "AIzaSyBz7jENWut1alkGP28qmZ5Ijez8jWyU2us",
      "PLAY_SERVICES_VERSION": "12.0.0",
      "ANDROID_SUPPORT_V4_VERSION": "24.1.0",
      "PACKAGE_NAME": "io.cordova.hellocordova"
    },
    "cordova-plugin-network-information": {
      "PACKAGE_NAME": "io.cordova.hellocordova"
    },
    "cordova-plugin-geolocation": {
      "PACKAGE_NAME": "io.cordova.hellocordova"
    }
  },
  "dependent_plugins": {}
}